{
    "KPlugin": {
        "Authors": [
            {
                "Email": "aacid@kde.org",
                "Name": "Albert Astals Cid",
                "Name[ar]": "Albert Astals Cid",
                "Name[az]": "Albert Astals Cid",
                "Name[be]": "Albert Astals Cid",
                "Name[bg]": "Albert Astals Cid",
                "Name[ca@valencia]": "Albert Astals Cid",
                "Name[ca]": "Albert Astals Cid",
                "Name[cs]": "Albert Astals Cid",
                "Name[da]": "Albert Astals Cid",
                "Name[de]": "Albert Astals Cid",
                "Name[el]": "Albert Astals Cid",
                "Name[en_GB]": "Albert Astals Cid",
                "Name[eo]": "Albert Astals Cid",
                "Name[es]": "Albert Astals Cid",
                "Name[et]": "Albert Astals Cid",
                "Name[eu]": "Albert Astals Cid",
                "Name[fi]": "Albert Astals Cid",
                "Name[fr]": "Albert Astals Cid",
                "Name[gl]": "Albert Astals Cid",
                "Name[he]": "אלברט אסטלס סיד",
                "Name[hu]": "Albert Astals Cid",
                "Name[ia]": "Albert  Astals Cid",
                "Name[ie]": "Albert Astals Cid",
                "Name[it]": "Albert Astals Cid",
                "Name[ka]": "Albert Astals Cid",
                "Name[ko]": "Albert Astals Cid",
                "Name[lt]": "Albert Astals Cid",
                "Name[lv]": "Albert Astals Cid",
                "Name[nl]": "Albert Astals Cid",
                "Name[nn]": "Albert Astals Cid",
                "Name[pa]": "ਅਲਬਰਟ ਅਸਟਾਲਸ ਸਿਡ",
                "Name[pl]": "Albert Astals Cid",
                "Name[pt]": "Albert Astals Cid",
                "Name[pt_BR]": "Albert Astals Cid",
                "Name[ro]": "Albert Astals Cid",
                "Name[ru]": "Albert Astals Cid",
                "Name[sk]": "Albert Astals Cid",
                "Name[sl]": "Albert Astals Cid",
                "Name[sr@ijekavian]": "Алберт Асталс Сид",
                "Name[sr@ijekavianlatin]": "Albert Astals Sid",
                "Name[sr@latin]": "Albert Astals Sid",
                "Name[sr]": "Алберт Асталс Сид",
                "Name[sv]": "Albert Astals Cid",
                "Name[ta]": "ஆல்பர்டு அஸ்டால்சு சிடு",
                "Name[tr]": "Albert Astals Cid",
                "Name[uk]": "Albert Astals Cid",
                "Name[vi]": "Albert Astals Cid",
                "Name[x-test]": "xxAlbert Astals Cidxx",
                "Name[zh_CN]": "Albert Astals Cid",
                "Name[zh_TW]": "Albert Astals Cid"
            }
        ],
        "Copyright": "© 2005-2008 Albert Astals Cid",
        "Copyright[ar]": "© 2005-2008 Albert Astals Cid",
        "Copyright[az]": "© 2005-2008 Albert Astals Cid",
        "Copyright[be]": "© 2005-2008 Albert Astals Cid",
        "Copyright[bg]": "© 2005-2008 Albert Astals Cid",
        "Copyright[ca@valencia]": "© 2005-2008 Albert Astals Cid",
        "Copyright[ca]": "© 2005-2008 Albert Astals Cid",
        "Copyright[cs]": "© 2005-2008 Albert Astals Cid",
        "Copyright[da]": "© 2005-2008 Albert Astals Cid",
        "Copyright[de]": "© 2005-2008 Albert Astals Cid",
        "Copyright[el]": "© 2005-2008 Albert Astals Cid",
        "Copyright[en_GB]": "© 2005-2008 Albert Astals Cid",
        "Copyright[eo]": "© 2005-2008 Albert Astals Cid",
        "Copyright[es]": "© 2005-2008 Albert Astals Cid",
        "Copyright[et]": "© 2005-2008: Albert Astals Cid",
        "Copyright[eu]": "© 2005-2008 Albert Astals Cid",
        "Copyright[fi]": "© 2005–2008 Albert Astals Cid",
        "Copyright[fr]": "© 2005-2008 Albert Astals Cid",
        "Copyright[gl]": "© 2005-2008 Albert Astals Cid",
        "Copyright[he]": "© 2005‏-2008 אלברט אסטלס סיד",
        "Copyright[hu]": "© Albert Astals Cid, 2005-2008.",
        "Copyright[ia]": "Albert  Astals Cid",
        "Copyright[ie]": "© 2005-2008 Albert Astals Cid",
        "Copyright[it]": "© 2005-2008 Albert Astals Cid",
        "Copyright[ka]": "© 2005-2008 Albert Astals Cid",
        "Copyright[ko]": "© 2005-2008 Albert Astals Cid",
        "Copyright[lt]": "© 2005-2008 Albert Astals Cid",
        "Copyright[lv]": "© 2005-2008 Albert Astals Cid",
        "Copyright[nl]": "© 2005-2008 Albert Astals Cid",
        "Copyright[nn]": "© 2005–2008 Albert Astals Cid",
        "Copyright[pa]": "© 2005-2008 Albert Astals Cid",
        "Copyright[pl]": "© 2005-2008 Albert Astals Cid",
        "Copyright[pt]": "© 2005-2008 Albert Astals Cid",
        "Copyright[pt_BR]": "© 2005-2008 Albert Astals Cid",
        "Copyright[ro]": "© 2005-2008 Albert Astals Cid",
        "Copyright[ru]": "© Albert Astals Cid, 2005-2008",
        "Copyright[sk]": "© 2005-2008 Albert Astals Cid",
        "Copyright[sl]": "© 2005-2008 Albert Astals Cid",
        "Copyright[sr@ijekavian]": "© 2005–2008, Алберт Асталс Сид",
        "Copyright[sr@ijekavianlatin]": "© 2005–2008, Albert Astals Sid",
        "Copyright[sr@latin]": "© 2005–2008, Albert Astals Sid",
        "Copyright[sr]": "© 2005–2008, Алберт Асталс Сид",
        "Copyright[sv]": "© 2005-2008 Albert Astals Cid",
        "Copyright[tr]": "© 2005-2008 Albert Astals Cid",
        "Copyright[uk]": "© Albert Astals Cid, 2005–2008",
        "Copyright[vi]": "© 2005-2008 Albert Astals Cid",
        "Copyright[x-test]": "xx© 2005-2008 Albert Astals Cidxx",
        "Copyright[zh_CN]": "© 2005-2008 Albert Astals Cid",
        "Copyright[zh_TW]": "© 2005-2008 Albert Astals Cid",
        "Description": "A PDF file renderer",
        "Description[ar]": "عارض ملفات بي دي اف",
        "Description[az]": "PDF faylı tərtibatçısı",
        "Description[be]": "Сродак візуалізацыі файлаў PDF",
        "Description[bg]": "Визуализатор на PDF",
        "Description[ca@valencia]": "Un renderitzador de fitxers PDF",
        "Description[ca]": "Un renderitzador de fitxers PDF",
        "Description[cs]": "Vykreslovač PDF souborů",
        "Description[da]": "En gengiver til PDF-filer",
        "Description[de]": "Ein Renderer für PDF-Dateien",
        "Description[el]": "Πρόγραμμα αποτύπωσης για PDF αρχεία",
        "Description[en_GB]": "A PDF file renderer",
        "Description[eo]": "PDF-dosierigilo",
        "Description[es]": "Un visor de archivos PDF",
        "Description[et]": "PDF-faili renderdaja",
        "Description[eu]": "PDF fitxategi errendatzaile bat",
        "Description[fi]": "PDF-tiedostohahmonnin",
        "Description[fr]": "Système de rendu pour les fichiers « PDF »",
        "Description[gl]": "Un visor de ficheiros PDF.",
        "Description[he]": "מעבד קובצי PDF",
        "Description[hu]": "PDF-fájl leképező",
        "Description[ia]": "Un renditor de file de PDF",
        "Description[it]": "Un visualizzatore di file PDF",
        "Description[ka]": "PDF ფაილის რენდერერი",
        "Description[ko]": "PDF 파일 렌더러",
        "Description[lt]": "PDF failų atvaizdavimas",
        "Description[lv]": "PDF datņu atveidotājs",
        "Description[nl]": "Een PDF-bestandsviewer",
        "Description[nn]": "Ein gjengjevar for PDF-filer",
        "Description[pa]": "PDF ਫਾਇਲ ਰੈਂਡਰਰ",
        "Description[pl]": "Wyświetlanie plików PDF",
        "Description[pt]": "Um visualizador de ficheiros PDF",
        "Description[pt_BR]": "Um interpretador de arquivos PDF",
        "Description[ro]": "Randor pentru fișiere PDF",
        "Description[ru]": "Модуль поддержки формата PDF",
        "Description[sk]": "Vykresľovanie PDF súborov",
        "Description[sl]": "Izrisovalnik datotek PDF",
        "Description[sr@ijekavian]": "Рендерер ПДФ фајлова",
        "Description[sr@ijekavianlatin]": "Renderer PDF fajlova",
        "Description[sr@latin]": "Renderer PDF fajlova",
        "Description[sr]": "Рендерер ПДФ фајлова",
        "Description[sv]": "Ett återgivningsprogram för PDF-filer",
        "Description[tr]": "PDF dosyası sunucu",
        "Description[uk]": "Програма для показу файлів PDF",
        "Description[vi]": "Một trình kết xuất tệp PDF",
        "Description[x-test]": "xxA PDF file rendererxx",
        "Description[zh_CN]": "PDF 文件渲染程序",
        "Description[zh_TW]": "PDF 檔成像器",
        "License": "GPL",
        "MimeTypes": [
            "application/x-pdf",
            "application/pdf",
            "application/x-wwf"
        ],
        "Name": "PDF Backend",
        "Name[ar]": "خلفية بي دي اف",
        "Name[az]": "PDF modulu",
        "Name[be]": "Рухавік PDF",
        "Name[bg]": "Бекенд на PDF ",
        "Name[ca@valencia]": "Dorsal PDF",
        "Name[ca]": "Dorsal PDF",
        "Name[cs]": "Podpůrná vrstva PDF",
        "Name[da]": "PDF-backend",
        "Name[de]": "PDF-Anzeigemodul",
        "Name[el]": "Σύστημα υποστήριξης PDF",
        "Name[en_GB]": "PDF Backend",
        "Name[eo]": "PDF-Backend",
        "Name[es]": "Motor para PDF",
        "Name[et]": "PDF-i taustaprogramm",
        "Name[eu]": "PDFen bizkarraldekoa",
        "Name[fi]": "PDF-taustaosa",
        "Name[fr]": "Moteur PDF",
        "Name[gl]": "Motor de PDF",
        "Name[he]": "מנגנון PDF",
        "Name[hu]": "PDF modul",
        "Name[ia]": "Retro-administration de PDF",
        "Name[ie]": "Infrastructura PDF",
        "Name[it]": "Backend PDF",
        "Name[ka]": "PDF უკანაბოლო",
        "Name[ko]": "PDF 백엔드",
        "Name[lt]": "PDF programinė sąsaja",
        "Name[lv]": "PDF aizmugursistēma",
        "Name[nl]": "PDF-backend",
        "Name[nn]": "PDF-motor",
        "Name[pa]": "PDF ਬੈਕਐਂਡ",
        "Name[pl]": "Obsługa PDF",
        "Name[pt]": "Infra-Estrutura de PDF",
        "Name[pt_BR]": "Infraestrutura PDF",
        "Name[ro]": "Platformă PDF",
        "Name[ru]": "Модуль поддержки формата PDF",
        "Name[sk]": "PDF Backend",
        "Name[sl]": "Zaledje za PDF",
        "Name[sr@ijekavian]": "Позадина за ПДФ",
        "Name[sr@ijekavianlatin]": "Pozadina za PDF",
        "Name[sr@latin]": "Pozadina za PDF",
        "Name[sr]": "Позадина за ПДФ",
        "Name[sv]": "PDF-gränssnitt",
        "Name[ta]": "PDF பின்நிலை",
        "Name[tr]": "PDF Arka Ucu",
        "Name[uk]": "Модуль PDF",
        "Name[vi]": "Hậu phương PDF",
        "Name[x-test]": "xxPDF Backendxx",
        "Name[zh_CN]": "PDF 后端程序",
        "Name[zh_TW]": "PDF 後端介面",
        "Version": "0.6.5"
    },
    "X-KDE-Priority": 1,
    "X-KDE-okularAPIVersion": 1,
    "X-KDE-okularHasInternalSettings": true
}
